"sumCell","tick"
1.82458072E8,0.0
1.82458072E8,1.0
1.82458072E8,2.0
1.82458072E8,3.0
1.82458072E8,4.0
1.82458072E8,5.0
1.82458072E8,6.0
1.82458072E8,7.0
1.82458072E8,8.0
1.82458072E8,9.0
1.82458072E8,10.0
1.82458072E8,11.0
1.82458072E8,12.0
1.82458072E8,13.0
1.82458072E8,14.0
1.82458072E8,15.0
1.82458072E8,16.0
1.82458072E8,17.0
1.82458072E8,18.0
1.82458072E8,19.0
