"sumCell","tick"
3.64916144E8,0.0
3.64916144E8,1.0
3.64916144E8,2.0
3.64916144E8,3.0
3.64916144E8,4.0
3.64916144E8,5.0
3.64916144E8,6.0
3.64916144E8,7.0
3.64916144E8,8.0
3.64916144E8,9.0
3.64916144E8,10.0
3.64916144E8,11.0
3.64916144E8,12.0
3.64916144E8,13.0
3.64916144E8,14.0
3.64916144E8,15.0
3.64916144E8,16.0
3.64916144E8,17.0
3.64916144E8,18.0
3.64916144E8,19.0
3.64916144E8,20.0
3.64916144E8,21.0
3.64916144E8,22.0
3.64916144E8,23.0
3.64916144E8,24.0
3.64916144E8,25.0
3.64916144E8,26.0
3.64916144E8,27.0
3.64916144E8,28.0
3.64916144E8,29.0
3.64916144E8,30.0
3.64916144E8,31.0
3.64916144E8,32.0
3.64916144E8,33.0
3.64916144E8,34.0
3.64916144E8,35.0
3.64916144E8,36.0
3.64916144E8,37.0
3.64916144E8,38.0
3.64916144E8,39.0
3.64916144E8,40.0
3.64916144E8,41.0
3.64916144E8,42.0
3.64916144E8,43.0
3.64916144E8,44.0
3.64916144E8,45.0
3.64916144E8,46.0
3.64916144E8,47.0
3.64916144E8,48.0
3.64916144E8,49.0
3.64916144E8,50.0
3.64916144E8,51.0
3.64916144E8,52.0
3.64916144E8,53.0
3.64916144E8,54.0
3.64916144E8,55.0
3.64916144E8,56.0
3.64916144E8,57.0
3.64916144E8,58.0
3.64916144E8,59.0
3.64916144E8,60.0
3.64916144E8,61.0
3.64916144E8,62.0
3.64916144E8,63.0
3.64916144E8,64.0
3.64916144E8,65.0
3.64916144E8,66.0
3.64916144E8,67.0
3.64916144E8,68.0
3.64916144E8,69.0
3.64916144E8,70.0
3.64916144E8,71.0
3.64916144E8,72.0
3.64916144E8,73.0
3.64916144E8,74.0
3.64916144E8,75.0
3.64916144E8,76.0
3.64916144E8,77.0
3.64916144E8,78.0
3.64916144E8,79.0
3.64916144E8,80.0
3.64916144E8,81.0
3.64916144E8,82.0
3.64916144E8,83.0
3.64916144E8,84.0
3.64916144E8,85.0
3.64916144E8,86.0
3.64916144E8,87.0
3.64916144E8,88.0
3.64916144E8,89.0
3.64916144E8,90.0
3.64916144E8,91.0
3.64916144E8,92.0
3.64916144E8,93.0
3.64916144E8,94.0
3.64916144E8,95.0
3.64916144E8,96.0
3.64916144E8,97.0
3.64916144E8,98.0
3.64916144E8,99.0
3.64916144E8,100.0
